; Engine configuration file.
; It's best edited using the editor UI and not directly,
; since the parameters that go here are not all obvious.
;
; Format:
;   [section] ; section goes between []
;   param=value ; assign values to parameters

config_version=4

_global_script_classes=[ {
"base": "Node",
"class": "AdMob",
"language": "GDScript",
"path": "res://admob-lib/admob.gd"
} ]
_global_script_class_icons={
"AdMob": "res://admob-lib/icon.png"
}

[application]

config/name="Kakapoo"
run/main_scene="res://splash.tscn"
boot_splash/image="res://assets/boot_splash_vertical.png"
config/icon="res://assets/icon.png"

[autoload]

Global="*res://global.gd"

[display]

window/size/width=360
window/size/height=640
window/size/resizable=false
window/handheld/orientation="portrait"
window/stretch/mode="2d"
window/stretch/aspect="expand"

[rendering]

environment/default_environment="res://default_env.tres"
